........................
----------------------------------------------------------------------
Ran 24 tests in 0.006s

OK
Name               Stmts   Miss Branch BrPart  Cover   Missing
--------------------------------------------------------------
Diplomacy.py          87      0     42      0   100%
TestDiplomacy.py     115      0      2      1    99%   192->exit
--------------------------------------------------------------
TOTAL                202      0     44      1    99%
