...............
----------------------------------------------------------------------
Ran 15 tests in 0.002s

OK


Name               Stmts   Miss Branch BrPart  Cover   Missing
--------------------------------------------------------------
Diplomacy.py          66      0     34      0   100%
TestDiplomacy.py      90      0      0      0   100%
--------------------------------------------------------------
TOTAL                156      0     34      0   100%
