A London
B Austin
C HongKong
D Madrid
E Rome
F Moscow
G NewYork
H Chicago
I Seoul
J Shanghai
K [dead]
L Bangkok
M [dead]
N [dead]
O Istanbul
P Mumbai
Q RioDeJaneiro
R MexicoCity
S [dead]
T Cairo
U Lagos
V Bangalor
W Manila
X Shenzhen
Y Guangzhou
Z Boston
